^C:\USERS\SMILE\DOCUMENTS\VISUAL STUDIO 2012\PROJECTS\PIXELSKY\PIXELSKY\STDAFX.CPP
D:\VISUALSTUDIO\VC\BIN\X86_AMD64\1049\CLUI.DLL
C:\WINDOWS\GLOBALIZATION\SORTING\SORTDEFAULT.NLS
C:\WINDOWS\SYSTEM32\TZRES.DLL
C:\USERS\SMILE\DOCUMENTS\VISUAL STUDIO 2012\PROJECTS\PIXELSKY\PIXELSKY\STDAFX.H
C:\USERS\SMILE\DOCUMENTS\VISUAL STUDIO 2012\PROJECTS\PIXELSKY\PIXELSKY\TARGETVER.H
C:\PROGRAM FILES (X86)\WINDOWS KITS\8.0\INCLUDE\SHARED\SDKDDKVER.H
C:\PROGRAM FILES (X86)\WINDOWS KITS\8.0\INCLUDE\UM\WINDOWS.H
C:\PROGRAM FILES (X86)\WINDOWS KITS\8.0\INCLUDE\SHARED\WINAPIFAMILY.H
D:\VISUALSTUDIO\VC\INCLUDE\EXCPT.H
D:\VISUALSTUDIO\VC\INCLUDE\CRTDEFS.H
D:\VISUALSTUDIO\VC\INCLUDE\SAL.H
D:\VISUALSTUDIO\VC\INCLUDE\CONCURRENCYSAL.H
D:\VISUALSTUDIO\VC\INCLUDE\VADEFS.H
D:\VISUALSTUDIO\VC\INCLUDE\STDARG.H
C:\PROGRAM FILES (X86)\WINDOWS KITS\8.0\INCLUDE\SHARED\WINDEF.H
C:\PROGRAM FILES (X86)\WINDOWS KITS\8.0\INCLUDE\SHARED\MINWINDEF.H
C:\PROGRAM FILES (X86)\WINDOWS KITS\8.0\INCLUDE\SHARED\SPECSTRINGS.H
C:\PROGRAM FILES (X86)\WINDOWS KITS\8.0\INCLUDE\SHARED\SPECSTRINGS_STRICT.H
C:\PROGRAM FILES (X86)\WINDOWS KITS\8.0\INCLUDE\SHARED\SPECSTRINGS_UNDEF.H
C:\PROGRAM FILES (X86)\WINDOWS KITS\8.0\INCLUDE\SHARED\DRIVERSPECS.H
C:\PROGRAM FILES (X86)\WINDOWS KITS\8.0\INCLUDE\SHARED\SDV_DRIVERSPECS.H
C:\PROGRAM FILES (X86)\WINDOWS KITS\8.0\INCLUDE\UM\WINNT.H
D:\VISUALSTUDIO\VC\INCLUDE\CTYPE.H
C:\PROGRAM FILES (X86)\WINDOWS KITS\8.0\INCLUDE\SHARED\KERNELSPECS.H
C:\PROGRAM FILES (X86)\WINDOWS KITS\8.0\INCLUDE\SHARED\BASETSD.H
C:\PROGRAM FILES (X86)\WINDOWS KITS\8.0\INCLUDE\SHARED\GUIDDEF.H
D:\VISUALSTUDIO\VC\INCLUDE\STRING.H
C:\PROGRAM FILES (X86)\WINDOWS KITS\8.0\INCLUDE\SHARED\PSHPACK4.H
C:\PROGRAM FILES (X86)\WINDOWS KITS\8.0\INCLUDE\SHARED\POPPACK.H
C:\PROGRAM FILES (X86)\WINDOWS KITS\8.0\INCLUDE\SHARED\PSHPACK2.H
C:\PROGRAM FILES (X86)\WINDOWS KITS\8.0\INCLUDE\SHARED\PSHPACK8.H
C:\PROGRAM FILES (X86)\WINDOWS KITS\8.0\INCLUDE\SHARED\APISET.H
C:\PROGRAM FILES (X86)\WINDOWS KITS\8.0\INCLUDE\SHARED\KTMTYPES.H
C:\PROGRAM FILES (X86)\WINDOWS KITS\8.0\INCLUDE\UM\WINBASE.H
C:\PROGRAM FILES (X86)\WINDOWS KITS\8.0\INCLUDE\SHARED\APISETCCONV.H
C:\PROGRAM FILES (X86)\WINDOWS KITS\8.0\INCLUDE\UM\MINWINBASE.H
C:\PROGRAM FILES (X86)\WINDOWS KITS\8.0\INCLUDE\UM\PROCESSENV.H
C:\PROGRAM FILES (X86)\WINDOWS KITS\8.0\INCLUDE\UM\FILEAPI.H
C:\PROGRAM FILES (X86)\WINDOWS KITS\8.0\INCLUDE\UM\DEBUGAPI.H
C:\PROGRAM FILES (X86)\WINDOWS KITS\8.0\INCLUDE\UM\UTILAPISET.H
C:\PROGRAM FILES (X86)\WINDOWS KITS\8.0\INCLUDE\UM\HANDLEAPI.H
C:\PROGRAM FILES (X86)\WINDOWS KITS\8.0\INCLUDE\UM\ERRHANDLINGAPI.H
C:\PROGRAM FILES (X86)\WINDOWS KITS\8.0\INCLUDE\UM\FIBERSAPI.H
C:\PROGRAM FILES (X86)\WINDOWS KITS\8.0\INCLUDE\UM\NAMEDPIPEAPI.H
C:\PROGRAM FILES (X86)\WINDOWS KITS\8.0\INCLUDE\UM\PROFILEAPI.H
C:\PROGRAM FILES (X86)\WINDOWS KITS\8.0\INCLUDE\UM\HEAPAPI.H
C:\PROGRAM FILES (X86)\WINDOWS KITS\8.0\INCLUDE\UM\IOAPISET.H
C:\PROGRAM FILES (X86)\WINDOWS KITS\8.0\INCLUDE\UM\SYNCHAPI.H
C:\PROGRAM FILES (X86)\WINDOWS KITS\8.0\INCLUDE\UM\INTERLOCKEDAPI.H
C:\PROGRAM FILES (X86)\WINDOWS KITS\8.0\INCLUDE\UM\PROCESSTHREADSAPI.H
C:\PROGRAM FILES (X86)\WINDOWS KITS\8.0\INCLUDE\UM\SYSINFOAPI.H
C:\PROGRAM FILES (X86)\WINDOWS KITS\8.0\INCLUDE\UM\MEMORYAPI.H
C:\PROGRAM FILES (X86)\WINDOWS KITS\8.0\INCLUDE\UM\THREADPOOLLEGACYAPISET.H
C:\PROGRAM FILES (X86)\WINDOWS KITS\8.0\INCLUDE\UM\THREADPOOLAPISET.H
C:\PROGRAM FILES (X86)\WINDOWS KITS\8.0\INCLUDE\UM\BEMAPISET.H
C:\PROGRAM FILES (X86)\WINDOWS KITS\8.0\INCLUDE\UM\JOBAPI.H
C:\PROGRAM FILES (X86)\WINDOWS KITS\8.0\INCLUDE\UM\WOW64APISET.H
C:\PROGRAM FILES (X86)\WINDOWS KITS\8.0\INCLUDE\UM\LIBLOADERAPI.H
C:\PROGRAM FILES (X86)\WINDOWS KITS\8.0\INCLUDE\UM\SECURITYBASEAPI.H
C:\PROGRAM FILES (X86)\WINDOWS KITS\8.0\INCLUDE\UM\NAMESPACEAPI.H
C:\PROGRAM FILES (X86)\WINDOWS KITS\8.0\INCLUDE\UM\SYSTEMTOPOLOGYAPI.H
C:\PROGRAM FILES (X86)\WINDOWS KITS\8.0\INCLUDE\UM\PROCESSTOPOLOGYAPI.H
C:\PROGRAM FILES (X86)\WINDOWS KITS\8.0\INCLUDE\UM\SECURITYAPPCONTAINER.H
C:\PROGRAM FILES (X86)\WINDOWS KITS\8.0\INCLUDE\UM\REALTIMEAPISET.H
C:\PROGRAM FILES (X86)\WINDOWS KITS\8.0\INCLUDE\SHARED\WINERROR.H
C:\PROGRAM FILES (X86)\WINDOWS KITS\8.0\INCLUDE\UM\TIMEZONEAPI.H
C:\PROGRAM FILES (X86)\WINDOWS KITS\8.0\INCLUDE\UM\WINGDI.H
C:\PROGRAM FILES (X86)\WINDOWS KITS\8.0\INCLUDE\SHARED\PSHPACK1.H
C:\PROGRAM FILES (X86)\WINDOWS KITS\8.0\INCLUDE\UM\WINUSER.H
C:\PROGRAM FILES (X86)\WINDOWS KITS\8.0\INCLUDE\SHARED\TVOUT.H
C:\PROGRAM FILES (X86)\WINDOWS KITS\8.0\INCLUDE\UM\WINNLS.H
C:\PROGRAM FILES (X86)\WINDOWS KITS\8.0\INCLUDE\UM\DATETIMEAPI.H
C:\PROGRAM FILES (X86)\WINDOWS KITS\8.0\INCLUDE\UM\STRINGAPISET.H
C:\PROGRAM FILES (X86)\WINDOWS KITS\8.0\INCLUDE\UM\WINCON.H
C:\PROGRAM FILES (X86)\WINDOWS KITS\8.0\INCLUDE\UM\CONSOLEAPI.H
C:\PROGRAM FILES (X86)\WINDOWS KITS\8.0\INCLUDE\UM\WINVER.H
C:\PROGRAM FILES (X86)\WINDOWS KITS\8.0\INCLUDE\UM\VERRSRC.H
C:\PROGRAM FILES (X86)\WINDOWS KITS\8.0\INCLUDE\UM\WINREG.H
C:\PROGRAM FILES (X86)\WINDOWS KITS\8.0\INCLUDE\UM\REASON.H
C:\PROGRAM FILES (X86)\WINDOWS KITS\8.0\INCLUDE\UM\WINNETWK.H
C:\PROGRAM FILES (X86)\WINDOWS KITS\8.0\INCLUDE\SHARED\WNNC.H
C:\PROGRAM FILES (X86)\WINDOWS KITS\8.0\INCLUDE\SHARED\STRALIGN.H
C:\PROGRAM FILES (X86)\WINDOWS KITS\8.0\INCLUDE\UM\WINSVC.H
C:\PROGRAM FILES (X86)\WINDOWS KITS\8.0\INCLUDE\UM\MCX.H
C:\PROGRAM FILES (X86)\WINDOWS KITS\8.0\INCLUDE\UM\IMM.H
C:\PROGRAM FILES (X86)\WINDOWS KITS\8.0\INCLUDE\UM\IME_CMODES.H
^C:\USERS\SMILE\DOCUMENTS\VISUAL STUDIO 2012\PROJECTS\PIXELSKY\PIXELSKY\DLLMAIN.CPP
D:\VISUALSTUDIO\VC\BIN\X86_AMD64\1049\CLUI.DLL
C:\WINDOWS\GLOBALIZATION\SORTING\SORTDEFAULT.NLS
C:\WINDOWS\SYSTEM32\TZRES.DLL
C:\USERS\SMILE\DOCUMENTS\VISUAL STUDIO 2012\PROJECTS\PIXELSKY\PIXELSKY\STDAFX.H
C:\USERS\SMILE\DOCUMENTS\VISUAL STUDIO 2012\PROJECTS\PIXELSKY\PIXELSKY\TARGETVER.H
C:\PROGRAM FILES (X86)\WINDOWS KITS\8.0\INCLUDE\SHARED\SDKDDKVER.H
C:\PROGRAM FILES (X86)\WINDOWS KITS\8.0\INCLUDE\UM\WINDOWS.H
C:\PROGRAM FILES (X86)\WINDOWS KITS\8.0\INCLUDE\SHARED\WINAPIFAMILY.H
D:\VISUALSTUDIO\VC\INCLUDE\EXCPT.H
D:\VISUALSTUDIO\VC\INCLUDE\CRTDEFS.H
D:\VISUALSTUDIO\VC\INCLUDE\SAL.H
D:\VISUALSTUDIO\VC\INCLUDE\CONCURRENCYSAL.H
D:\VISUALSTUDIO\VC\INCLUDE\VADEFS.H
D:\VISUALSTUDIO\VC\INCLUDE\STDARG.H
C:\PROGRAM FILES (X86)\WINDOWS KITS\8.0\INCLUDE\SHARED\WINDEF.H
C:\PROGRAM FILES (X86)\WINDOWS KITS\8.0\INCLUDE\SHARED\MINWINDEF.H
C:\PROGRAM FILES (X86)\WINDOWS KITS\8.0\INCLUDE\SHARED\SPECSTRINGS.H
C:\PROGRAM FILES (X86)\WINDOWS KITS\8.0\INCLUDE\SHARED\SPECSTRINGS_STRICT.H
C:\PROGRAM FILES (X86)\WINDOWS KITS\8.0\INCLUDE\SHARED\SPECSTRINGS_UNDEF.H
C:\PROGRAM FILES (X86)\WINDOWS KITS\8.0\INCLUDE\SHARED\DRIVERSPECS.H
C:\PROGRAM FILES (X86)\WINDOWS KITS\8.0\INCLUDE\SHARED\SDV_DRIVERSPECS.H
C:\PROGRAM FILES (X86)\WINDOWS KITS\8.0\INCLUDE\UM\WINNT.H
D:\VISUALSTUDIO\VC\INCLUDE\CTYPE.H
C:\PROGRAM FILES (X86)\WINDOWS KITS\8.0\INCLUDE\SHARED\KERNELSPECS.H
C:\PROGRAM FILES (X86)\WINDOWS KITS\8.0\INCLUDE\SHARED\BASETSD.H
C:\PROGRAM FILES (X86)\WINDOWS KITS\8.0\INCLUDE\SHARED\GUIDDEF.H
D:\VISUALSTUDIO\VC\INCLUDE\STRING.H
C:\PROGRAM FILES (X86)\WINDOWS KITS\8.0\INCLUDE\SHARED\PSHPACK4.H
C:\PROGRAM FILES (X86)\WINDOWS KITS\8.0\INCLUDE\SHARED\POPPACK.H
C:\PROGRAM FILES (X86)\WINDOWS KITS\8.0\INCLUDE\SHARED\PSHPACK2.H
C:\PROGRAM FILES (X86)\WINDOWS KITS\8.0\INCLUDE\SHARED\PSHPACK8.H
C:\PROGRAM FILES (X86)\WINDOWS KITS\8.0\INCLUDE\SHARED\APISET.H
C:\PROGRAM FILES (X86)\WINDOWS KITS\8.0\INCLUDE\SHARED\KTMTYPES.H
C:\PROGRAM FILES (X86)\WINDOWS KITS\8.0\INCLUDE\UM\WINBASE.H
C:\PROGRAM FILES (X86)\WINDOWS KITS\8.0\INCLUDE\SHARED\APISETCCONV.H
C:\PROGRAM FILES (X86)\WINDOWS KITS\8.0\INCLUDE\UM\MINWINBASE.H
C:\PROGRAM FILES (X86)\WINDOWS KITS\8.0\INCLUDE\UM\PROCESSENV.H
C:\PROGRAM FILES (X86)\WINDOWS KITS\8.0\INCLUDE\UM\FILEAPI.H
C:\PROGRAM FILES (X86)\WINDOWS KITS\8.0\INCLUDE\UM\DEBUGAPI.H
C:\PROGRAM FILES (X86)\WINDOWS KITS\8.0\INCLUDE\UM\UTILAPISET.H
C:\PROGRAM FILES (X86)\WINDOWS KITS\8.0\INCLUDE\UM\HANDLEAPI.H
C:\PROGRAM FILES (X86)\WINDOWS KITS\8.0\INCLUDE\UM\ERRHANDLINGAPI.H
C:\PROGRAM FILES (X86)\WINDOWS KITS\8.0\INCLUDE\UM\FIBERSAPI.H
C:\PROGRAM FILES (X86)\WINDOWS KITS\8.0\INCLUDE\UM\NAMEDPIPEAPI.H
C:\PROGRAM FILES (X86)\WINDOWS KITS\8.0\INCLUDE\UM\PROFILEAPI.H
C:\PROGRAM FILES (X86)\WINDOWS KITS\8.0\INCLUDE\UM\HEAPAPI.H
C:\PROGRAM FILES (X86)\WINDOWS KITS\8.0\INCLUDE\UM\IOAPISET.H
C:\PROGRAM FILES (X86)\WINDOWS KITS\8.0\INCLUDE\UM\SYNCHAPI.H
C:\PROGRAM FILES (X86)\WINDOWS KITS\8.0\INCLUDE\UM\INTERLOCKEDAPI.H
C:\PROGRAM FILES (X86)\WINDOWS KITS\8.0\INCLUDE\UM\PROCESSTHREADSAPI.H
C:\PROGRAM FILES (X86)\WINDOWS KITS\8.0\INCLUDE\UM\SYSINFOAPI.H
C:\PROGRAM FILES (X86)\WINDOWS KITS\8.0\INCLUDE\UM\MEMORYAPI.H
C:\PROGRAM FILES (X86)\WINDOWS KITS\8.0\INCLUDE\UM\THREADPOOLLEGACYAPISET.H
C:\PROGRAM FILES (X86)\WINDOWS KITS\8.0\INCLUDE\UM\THREADPOOLAPISET.H
C:\PROGRAM FILES (X86)\WINDOWS KITS\8.0\INCLUDE\UM\BEMAPISET.H
C:\PROGRAM FILES (X86)\WINDOWS KITS\8.0\INCLUDE\UM\JOBAPI.H
C:\PROGRAM FILES (X86)\WINDOWS KITS\8.0\INCLUDE\UM\WOW64APISET.H
C:\PROGRAM FILES (X86)\WINDOWS KITS\8.0\INCLUDE\UM\LIBLOADERAPI.H
C:\PROGRAM FILES (X86)\WINDOWS KITS\8.0\INCLUDE\UM\SECURITYBASEAPI.H
C:\PROGRAM FILES (X86)\WINDOWS KITS\8.0\INCLUDE\UM\NAMESPACEAPI.H
C:\PROGRAM FILES (X86)\WINDOWS KITS\8.0\INCLUDE\UM\SYSTEMTOPOLOGYAPI.H
C:\PROGRAM FILES (X86)\WINDOWS KITS\8.0\INCLUDE\UM\PROCESSTOPOLOGYAPI.H
C:\PROGRAM FILES (X86)\WINDOWS KITS\8.0\INCLUDE\UM\SECURITYAPPCONTAINER.H
C:\PROGRAM FILES (X86)\WINDOWS KITS\8.0\INCLUDE\UM\REALTIMEAPISET.H
C:\PROGRAM FILES (X86)\WINDOWS KITS\8.0\INCLUDE\SHARED\WINERROR.H
C:\PROGRAM FILES (X86)\WINDOWS KITS\8.0\INCLUDE\UM\TIMEZONEAPI.H
C:\PROGRAM FILES (X86)\WINDOWS KITS\8.0\INCLUDE\UM\WINGDI.H
C:\PROGRAM FILES (X86)\WINDOWS KITS\8.0\INCLUDE\SHARED\PSHPACK1.H
C:\PROGRAM FILES (X86)\WINDOWS KITS\8.0\INCLUDE\UM\WINUSER.H
C:\PROGRAM FILES (X86)\WINDOWS KITS\8.0\INCLUDE\SHARED\TVOUT.H
C:\PROGRAM FILES (X86)\WINDOWS KITS\8.0\INCLUDE\UM\WINNLS.H
C:\PROGRAM FILES (X86)\WINDOWS KITS\8.0\INCLUDE\UM\DATETIMEAPI.H
C:\PROGRAM FILES (X86)\WINDOWS KITS\8.0\INCLUDE\UM\STRINGAPISET.H
C:\PROGRAM FILES (X86)\WINDOWS KITS\8.0\INCLUDE\UM\WINCON.H
C:\PROGRAM FILES (X86)\WINDOWS KITS\8.0\INCLUDE\UM\CONSOLEAPI.H
C:\PROGRAM FILES (X86)\WINDOWS KITS\8.0\INCLUDE\UM\WINVER.H
C:\PROGRAM FILES (X86)\WINDOWS KITS\8.0\INCLUDE\UM\VERRSRC.H
C:\PROGRAM FILES (X86)\WINDOWS KITS\8.0\INCLUDE\UM\WINREG.H
C:\PROGRAM FILES (X86)\WINDOWS KITS\8.0\INCLUDE\UM\REASON.H
C:\PROGRAM FILES (X86)\WINDOWS KITS\8.0\INCLUDE\UM\WINNETWK.H
C:\PROGRAM FILES (X86)\WINDOWS KITS\8.0\INCLUDE\SHARED\WNNC.H
C:\PROGRAM FILES (X86)\WINDOWS KITS\8.0\INCLUDE\SHARED\STRALIGN.H
C:\PROGRAM FILES (X86)\WINDOWS KITS\8.0\INCLUDE\UM\WINSVC.H
C:\PROGRAM FILES (X86)\WINDOWS KITS\8.0\INCLUDE\UM\MCX.H
C:\PROGRAM FILES (X86)\WINDOWS KITS\8.0\INCLUDE\UM\IMM.H
C:\PROGRAM FILES (X86)\WINDOWS KITS\8.0\INCLUDE\UM\IME_CMODES.H
^C:\USERS\SMILE\DOCUMENTS\VISUAL STUDIO 2012\PROJECTS\PIXELSKY\PIXELSKY\PIXELSKY.CPP
D:\VISUALSTUDIO\VC\BIN\X86_AMD64\1049\CLUI.DLL
C:\WINDOWS\GLOBALIZATION\SORTING\SORTDEFAULT.NLS
C:\WINDOWS\SYSTEM32\TZRES.DLL
C:\USERS\SMILE\DOCUMENTS\VISUAL STUDIO 2012\PROJECTS\PIXELSKY\PIXELSKY\X64\RELEASE\PIXELSKY.PCH
D:\VISUALSTUDIO\COMMON7\IDE\MSPDBSRV.EXE
C:\PROGRAM FILES\JAVA\JDK1.7.0_25\INCLUDE\JNI.H
D:\VISUALSTUDIO\VC\INCLUDE\STDIO.H
D:\VISUALSTUDIO\VC\INCLUDE\CRTDEFS.H
D:\VISUALSTUDIO\VC\INCLUDE\SWPRINTF.INL
C:\PROGRAM FILES\JAVA\JDK1.7.0_25\INCLUDE\WIN32\JNI_MD.H
D:\VISUALSTUDIO\VC\INCLUDE\IOSTREAM
D:\VISUALSTUDIO\VC\INCLUDE\ISTREAM
D:\VISUALSTUDIO\VC\INCLUDE\OSTREAM
D:\VISUALSTUDIO\VC\INCLUDE\IOS
D:\VISUALSTUDIO\VC\INCLUDE\XLOCNUM
D:\VISUALSTUDIO\VC\INCLUDE\CLIMITS
D:\VISUALSTUDIO\VC\INCLUDE\YVALS.H
D:\VISUALSTUDIO\VC\INCLUDE\XKEYCHECK.H
D:\VISUALSTUDIO\VC\INCLUDE\USE_ANSI.H
D:\VISUALSTUDIO\VC\INCLUDE\LIMITS.H
D:\VISUALSTUDIO\VC\INCLUDE\CMATH
D:\VISUALSTUDIO\VC\INCLUDE\MATH.H
D:\VISUALSTUDIO\VC\INCLUDE\XTGMATH.H
D:\VISUALSTUDIO\VC\INCLUDE\XTR1COMMON
D:\VISUALSTUDIO\VC\INCLUDE\CSTDIO
D:\VISUALSTUDIO\VC\INCLUDE\CSTDLIB
D:\VISUALSTUDIO\VC\INCLUDE\STDLIB.H
D:\VISUALSTUDIO\VC\INCLUDE\STREAMBUF
D:\VISUALSTUDIO\VC\INCLUDE\XIOSBASE
D:\VISUALSTUDIO\VC\INCLUDE\XLOCALE
D:\VISUALSTUDIO\VC\INCLUDE\CSTRING
D:\VISUALSTUDIO\VC\INCLUDE\STDEXCEPT
D:\VISUALSTUDIO\VC\INCLUDE\EXCEPTION
D:\VISUALSTUDIO\VC\INCLUDE\XSTDDEF
D:\VISUALSTUDIO\VC\INCLUDE\CSTDDEF
D:\VISUALSTUDIO\VC\INCLUDE\STDDEF.H
D:\VISUALSTUDIO\VC\INCLUDE\EH.H
D:\VISUALSTUDIO\VC\INCLUDE\MALLOC.H
D:\VISUALSTUDIO\VC\INCLUDE\XSTRING
D:\VISUALSTUDIO\VC\INCLUDE\XMEMORY0
D:\VISUALSTUDIO\VC\INCLUDE\LIMITS
D:\VISUALSTUDIO\VC\INCLUDE\YMATH.H
D:\VISUALSTUDIO\VC\INCLUDE\CFLOAT
D:\VISUALSTUDIO\VC\INCLUDE\FLOAT.H
D:\VISUALSTUDIO\VC\INCLUDE\CRTWRN.H
D:\VISUALSTUDIO\VC\INCLUDE\CWCHAR
D:\VISUALSTUDIO\VC\INCLUDE\WCHAR.H
D:\VISUALSTUDIO\VC\INCLUDE\WTIME.INL
D:\VISUALSTUDIO\VC\INCLUDE\NEW
D:\VISUALSTUDIO\VC\INCLUDE\XUTILITY
D:\VISUALSTUDIO\VC\INCLUDE\UTILITY
D:\VISUALSTUDIO\VC\INCLUDE\IOSFWD
D:\VISUALSTUDIO\VC\INCLUDE\CRTDBG.H
D:\VISUALSTUDIO\VC\INCLUDE\TYPE_TRAITS
D:\VISUALSTUDIO\VC\INCLUDE\XREFWRAP
D:\VISUALSTUDIO\VC\INCLUDE\XATOMIC0.H
D:\VISUALSTUDIO\VC\INCLUDE\INTRIN.H
D:\VISUALSTUDIO\VC\INCLUDE\SETJMP.H
D:\VISUALSTUDIO\VC\INCLUDE\IMMINTRIN.H
D:\VISUALSTUDIO\VC\INCLUDE\WMMINTRIN.H
D:\VISUALSTUDIO\VC\INCLUDE\NMMINTRIN.H
D:\VISUALSTUDIO\VC\INCLUDE\SMMINTRIN.H
D:\VISUALSTUDIO\VC\INCLUDE\TMMINTRIN.H
D:\VISUALSTUDIO\VC\INCLUDE\PMMINTRIN.H
D:\VISUALSTUDIO\VC\INCLUDE\EMMINTRIN.H
D:\VISUALSTUDIO\VC\INCLUDE\XMMINTRIN.H
D:\VISUALSTUDIO\VC\INCLUDE\MMINTRIN.H
D:\VISUALSTUDIO\VC\INCLUDE\AMMINTRIN.H
D:\VISUALSTUDIO\VC\INCLUDE\TYPEINFO
D:\VISUALSTUDIO\VC\INCLUDE\XLOCINFO
D:\VISUALSTUDIO\VC\INCLUDE\XLOCINFO.H
D:\VISUALSTUDIO\VC\INCLUDE\LOCALE.H
D:\VISUALSTUDIO\VC\INCLUDE\XDEBUG
D:\VISUALSTUDIO\VC\INCLUDE\XFACET
D:\VISUALSTUDIO\VC\INCLUDE\SYSTEM_ERROR
D:\VISUALSTUDIO\VC\INCLUDE\CERRNO
D:\VISUALSTUDIO\VC\INCLUDE\ERRNO.H
D:\VISUALSTUDIO\VC\INCLUDE\SHARE.H
C:\USERS\SMILE\DOCUMENTS\VISUAL STUDIO 2012\PROJECTS\PIXELSKY\PIXELSKY\RU_PIXELSKY_XPROTECT_HWIDCALLER.H
