^C:\USERS\SMILE\DOCUMENTS\VISUAL STUDIO 2012\PROJECTS\PIXELSKY\PIXELSKY\X64\RELEASE\DLLMAIN.OBJ|C:\USERS\SMILE\DOCUMENTS\VISUAL STUDIO 2012\PROJECTS\PIXELSKY\PIXELSKY\X64\RELEASE\PIXELSKY.OBJ|C:\USERS\SMILE\DOCUMENTS\VISUAL STUDIO 2012\PROJECTS\PIXELSKY\PIXELSKY\X64\RELEASE\STDAFX.OBJ
C:\PROGRAM FILES (X86)\WINDOWS KITS\8.0\LIB\WIN8\UM\X64\KERNEL32.LIB
C:\PROGRAM FILES (X86)\WINDOWS KITS\8.0\LIB\WIN8\UM\X64\USER32.LIB
C:\PROGRAM FILES (X86)\WINDOWS KITS\8.0\LIB\WIN8\UM\X64\GDI32.LIB
C:\PROGRAM FILES (X86)\WINDOWS KITS\8.0\LIB\WIN8\UM\X64\WINSPOOL.LIB
C:\PROGRAM FILES (X86)\WINDOWS KITS\8.0\LIB\WIN8\UM\X64\COMDLG32.LIB
C:\PROGRAM FILES (X86)\WINDOWS KITS\8.0\LIB\WIN8\UM\X64\ADVAPI32.LIB
C:\PROGRAM FILES (X86)\WINDOWS KITS\8.0\LIB\WIN8\UM\X64\SHELL32.LIB
C:\PROGRAM FILES (X86)\WINDOWS KITS\8.0\LIB\WIN8\UM\X64\OLE32.LIB
C:\PROGRAM FILES (X86)\WINDOWS KITS\8.0\LIB\WIN8\UM\X64\OLEAUT32.LIB
C:\PROGRAM FILES (X86)\WINDOWS KITS\8.0\LIB\WIN8\UM\X64\UUID.LIB
C:\PROGRAM FILES (X86)\WINDOWS KITS\8.0\LIB\WIN8\UM\X64\ODBC32.LIB
C:\PROGRAM FILES (X86)\WINDOWS KITS\8.0\LIB\WIN8\UM\X64\ODBCCP32.LIB
C:\USERS\SMILE\DOCUMENTS\VISUAL STUDIO 2012\PROJECTS\PIXELSKY\PIXELSKY\X64\RELEASE\DLLMAIN.OBJ
C:\USERS\SMILE\DOCUMENTS\VISUAL STUDIO 2012\PROJECTS\PIXELSKY\PIXELSKY\X64\RELEASE\PIXELSKY.OBJ
C:\USERS\SMILE\DOCUMENTS\VISUAL STUDIO 2012\PROJECTS\PIXELSKY\PIXELSKY\X64\RELEASE\STDAFX.OBJ
C:\WINDOWS\GLOBALIZATION\SORTING\SORTDEFAULT.NLS
D:\VISUALSTUDIO\VC\BIN\X86_AMD64\C2.DLL
D:\VISUALSTUDIO\VC\LIB\AMD64\MSVCRT.LIB
D:\VISUALSTUDIO\VC\LIB\AMD64\OLDNAMES.LIB
D:\VISUALSTUDIO\VC\LIB\AMD64\MSVCPRT.LIB
C:\WINDOWS\SYSTEM32\TZRES.DLL
D:\VISUALSTUDIO\VC\BIN\X86_AMD64\1049\LINKUI.DLL
D:\VISUALSTUDIO\COMMON7\IDE\MSPDBSRV.EXE
C:\PROGRAM FILES (X86)\WINDOWS KITS\8.0\BIN\X86\RC.EXE
D:\VISUALSTUDIO\VC\BIN\CVTRES.EXE
