^C:\Users\Smile\Documents\Visual Studio 2012\Projects\PixelSky\PixelSky\PixelSky.vcxproj
C:\Users\Smile\Documents\Visual Studio 2012\Projects\PixelSky\x64\Release\PixelSky.lib
C:\Users\Smile\Documents\Visual Studio 2012\Projects\PixelSky\x64\Release\PixelSky.lib
C:\Users\Smile\Documents\Visual Studio 2012\Projects\PixelSky\x64\Release\PixelSky.exp
C:\Users\Smile\Documents\Visual Studio 2012\Projects\PixelSky\x64\Release\PixelSky.exp
^C:\Users\Smile\Documents\Visual Studio 2012\Projects\PixelSky\PixelSky\PixelSky.vcxproj
C:\Users\Smile\Documents\Visual Studio 2012\Projects\PixelSky\x64\Release\PixelSky.lib
C:\Users\Smile\Documents\Visual Studio 2012\Projects\PixelSky\x64\Release\PixelSky.lib
C:\Users\Smile\Documents\Visual Studio 2012\Projects\PixelSky\x64\Release\PixelSky.exp
C:\Users\Smile\Documents\Visual Studio 2012\Projects\PixelSky\x64\Release\PixelSky.exp
^C:\Users\Smile\Documents\Visual Studio 2012\Projects\PixelSky\PixelSky\PixelSky.vcxproj
C:\Users\Smile\Documents\Visual Studio 2012\Projects\PixelSky\x64\Release\PixelSky.lib
C:\Users\Smile\Documents\Visual Studio 2012\Projects\PixelSky\x64\Release\PixelSky.lib
C:\Users\Smile\Documents\Visual Studio 2012\Projects\PixelSky\x64\Release\PixelSky.exp
C:\Users\Smile\Documents\Visual Studio 2012\Projects\PixelSky\x64\Release\PixelSky.exp
