^C:\USERS\SMILE\DOCUMENTS\VISUAL STUDIO 2012\PROJECTS\PIXELSKY\PIXELSKY\X64\DEBUG\DLLMAIN.OBJ|C:\USERS\SMILE\DOCUMENTS\VISUAL STUDIO 2012\PROJECTS\PIXELSKY\PIXELSKY\X64\DEBUG\PIXELSKY.OBJ|C:\USERS\SMILE\DOCUMENTS\VISUAL STUDIO 2012\PROJECTS\PIXELSKY\PIXELSKY\X64\DEBUG\STDAFX.OBJ
C:\USERS\SMILE\DOCUMENTS\VISUAL STUDIO 2012\PROJECTS\PIXELSKY\X64\DEBUG\PIXELSKY.ILK
C:\USERS\SMILE\DOCUMENTS\VISUAL STUDIO 2012\PROJECTS\PIXELSKY\X64\DEBUG\PIXELSKY.DLL
C:\USERS\SMILE\DOCUMENTS\VISUAL STUDIO 2012\PROJECTS\PIXELSKY\X64\DEBUG\PIXELSKY.PDB
