^C:\USERS\SMILE\DOCUMENTS\VISUAL STUDIO 2012\PROJECTS\PIXELSKY\PIXELSKY\STDAFX.CPP
C:\USERS\SMILE\DOCUMENTS\VISUAL STUDIO 2012\PROJECTS\PIXELSKY\PIXELSKY\RELEASE\PIXELSKY.PCH
C:\USERS\SMILE\DOCUMENTS\VISUAL STUDIO 2012\PROJECTS\PIXELSKY\PIXELSKY\RELEASE\STDAFX.OBJ
C:\USERS\SMILE\DOCUMENTS\VISUAL STUDIO 2012\PROJECTS\PIXELSKY\PIXELSKY\RELEASE\VC110.PDB
^C:\USERS\SMILE\DOCUMENTS\VISUAL STUDIO 2012\PROJECTS\PIXELSKY\PIXELSKY\DLLMAIN.CPP
C:\USERS\SMILE\DOCUMENTS\VISUAL STUDIO 2012\PROJECTS\PIXELSKY\PIXELSKY\RELEASE\DLLMAIN.OBJ
C:\USERS\SMILE\DOCUMENTS\VISUAL STUDIO 2012\PROJECTS\PIXELSKY\PIXELSKY\RELEASE\VC110.PDB
