^C:\USERS\SMILE\DOCUMENTS\VISUAL STUDIO 2012\PROJECTS\PIXELSKY\PIXELSKY\X64\RELEASE\DLLMAIN.OBJ|C:\USERS\SMILE\DOCUMENTS\VISUAL STUDIO 2012\PROJECTS\PIXELSKY\PIXELSKY\X64\RELEASE\PIXELSKY.OBJ|C:\USERS\SMILE\DOCUMENTS\VISUAL STUDIO 2012\PROJECTS\PIXELSKY\PIXELSKY\X64\RELEASE\STDAFX.OBJ
C:\USERS\SMILE\DOCUMENTS\VISUAL STUDIO 2012\PROJECTS\PIXELSKY\X64\RELEASE\PIXELSKY.DLL
C:\USERS\SMILE\DOCUMENTS\VISUAL STUDIO 2012\PROJECTS\PIXELSKY\X64\RELEASE\PIXELSKY.PDB
